0000000000000000000000000000
0111111111111001111111111110
0100001000001001000001000010
0100001000001111000001000010
0100001000001001000001000010
0111111111111001111111111110
0100001001000000001001000010
0100001001000000001001000010
0111111001111001111001111110
0000111000001001000001110000
0000111000001001000001110000
0100111111111111111111110010
0100001001000110001001000010
0100001001011111101001000010
0111111001011111101001111110
0100001001011111101001000010
0100001001000000001001000010
0111001001111111111001001110
0001001001000000001001001000
0001001001000000001001001000
0111111111111111111111111110
0111001100001001000011001110
0111001100001001000011001110
0111001111001001001111001110
0100001001001001001001000010
0100001001001001001001000010
0111111001111001111001111110
0100001000001001000001000010
0100001000001001000001000010
0111111111111111111111111110
0000000000000000000000000000